[
  {
    "id": "b1",
    "topic": "What do you suggest to make our company a better place?",
    "answers": [
      {
        "id": "a1",
        "text": "Espresso Machine",
        "votes": 12
      },
      {
        "id": "a2",
        "text": "Stop pretending and be yourselves",
        "votes": 10
      },
      {
        "id": "a3",
        "text": "Be more clear about the goals we are moving toward",
        "votes": 1
      }
    ]
  }
]
