[
  {
    "id": "6617dbbc-35a3-49d2-98b6-ef31d2fd7dd4",
    "title": "Topics for companies to ask their customers",
    "created_at": "2020-03-25T20:57:23.150Z",
    "updated_at": "2020-03-25T20:57:23.150Z",
    "boards": [
      {
        "id": "dd60a4b7-d74b-43e4-b476-d8b406946110",
        "slug": "how-can-we-make-your-experience-better",
        "created_at": "2020-03-26T01:43:52.475868+04:30",
        "updated_at": "2020-03-26T01:43:52.475868+04:30",
        "topic": "How can we make your experience better?",
        "answers": []
      },
      {
        "id": "230c3a74-65c6-4880-b5fc-9037e4eee8ea",
        "slug": "what-do-you-like-the-most-about-our-company-product",
        "created_at": "2020-03-26T01:43:24.457127+04:30",
        "updated_at": "2020-03-26T01:43:24.457127+04:30",
        "topic": "What do you like the most about our company / product?",
        "answers": []
      },
      {
        "id": "3da00930-a994-4a4c-a71c-184f4473b740",
        "slug": "what-features-do-you-like-to-be-added-to-our-product-service",
        "created_at": "2020-03-26T01:42:54.127448+04:30",
        "updated_at": "2020-03-26T01:42:54.127448+04:30",
        "topic": "What features do you like to be added to our product / service?",
        "answers": []
      },
      {
        "id": "ea318d8b-06c8-427a-a36f-23845bea3f00",
        "slug": "what-bothers-you-the-most-about-our-product-service",
        "created_at": "2020-03-26T01:42:19.023313+04:30",
        "updated_at": "2020-03-26T01:42:19.023313+04:30",
        "topic": "What bothers you the most about our product / service?",
        "answers": []
      }
    ]
  },
  {
    "id": "98c69076-26d0-4b36-ad58-5fc3e02dc894",
    "title": "Topics for companies to ask their employees",
    "created_at": "2020-03-25T20:57:00.212Z",
    "updated_at": "2020-03-25T20:57:00.212Z",
    "boards": [
      {
        "id": "b14ceaa2-6833-4fab-8eaa-1013655895e1",
        "slug": "how-can-we-improve-our-product-service",
        "created_at": "2020-03-26T01:40:34.539963+04:30",
        "updated_at": "2020-03-26T01:40:34.539963+04:30",
        "topic": "How can we improve our product / service?",
        "answers": []
      },
      {
        "id": "bdbef074-629a-438c-b192-6809290f6334",
        "slug": "how-are-you-feeling-right-now",
        "created_at": "2020-03-26T01:39:43.706199+04:30",
        "updated_at": "2020-03-26T01:39:43.706199+04:30",
        "topic": "How are you feeling right now?",
        "answers": []
      },
      {
        "id": "0bf07bad-35e1-4933-99eb-4531eea59b8f",
        "slug": "what-is-the-one-thing-holding-you-or-your-team-back",
        "created_at": "2020-03-26T01:39:14.74899+04:30",
        "updated_at": "2020-03-26T01:39:14.74899+04:30",
        "topic": "What is the one thing holding you or your team back?",
        "answers": []
      },
      {
        "id": "6a64fca5-d9c4-4d2f-bf2a-75901122b9f9",
        "slug": "as-a-team-what-can-we-do-differently-starting-from-tomorrow",
        "created_at": "2020-03-26T01:38:39.321667+04:30",
        "updated_at": "2020-03-26T01:38:39.321667+04:30",
        "topic": "As a team, what can we do differently starting from tomorrow?",
        "answers": []
      },
      {
        "id": "6a429551-02e0-4605-8156-af3018b8fc47",
        "slug": "if-there-was-one-thing-you-would-change-at-work-what-would-it-be",
        "created_at": "2020-03-26T01:37:50.468745+04:30",
        "updated_at": "2020-03-26T01:37:50.468745+04:30",
        "topic": "If there was one thing you would change at work, what would it be?",
        "answers": []
      },
      {
        "id": "12857762-5aee-40f8-9c2c-41df132da0cd",
        "slug": "how-did-you-feel-at-work-this-week",
        "created_at": "2020-03-26T01:37:02.418643+04:30",
        "updated_at": "2020-03-26T01:37:02.418643+04:30",
        "topic": "How did you feel at work this week?",
        "answers": []
      },
      {
        "id": "8d323b6e-1180-400b-822a-dc8437b389ec",
        "slug": "what-is-the-most-annoying-part-of-your-job",
        "created_at": "2020-03-26T01:36:33.78259+04:30",
        "updated_at": "2020-03-26T01:36:33.78259+04:30",
        "topic": "What is the most annoying part of your job?",
        "answers": []
      },
      {
        "id": "137113f0-2af7-40f1-a5d8-8b4619f93910",
        "slug": "what-do-you-like-about-our-company",
        "created_at": "2020-03-26T01:36:03.804104+04:30",
        "updated_at": "2020-03-26T01:36:03.804104+04:30",
        "topic": "What do you like about our company?",
        "answers": []
      },
      {
        "id": "9413f04e-6749-45f7-b03d-2db7cf99fb92",
        "slug": "what-is-bothering-you-the-most",
        "created_at": "2020-03-26T01:35:32.346585+04:30",
        "updated_at": "2020-03-26T01:35:32.346585+04:30",
        "topic": "What is bothering you the most?",
        "answers": []
      },
      {
        "id": "3cb71398-917e-4471-a951-084d843731a0",
        "slug": "what-was-the-worst-decision-we-made-in-the-last-three-months",
        "created_at": "2020-03-26T01:35:01.465357+04:30",
        "updated_at": "2020-03-26T01:35:01.465357+04:30",
        "topic": "What was the worst decision we made in the last three months?",
        "answers": []
      },
      {
        "id": "86a03a13-5f03-4731-abec-f75650fa56f2",
        "slug": "what-opportunities-do-you-see-for-our-company",
        "created_at": "2020-03-26T01:34:26.093319+04:30",
        "updated_at": "2020-03-26T01:34:26.093319+04:30",
        "topic": "What opportunities do you see for our company?",
        "answers": []
      },
      {
        "id": "dde2a4f4-ab4d-4c38-bb90-79c4a0d0bb56",
        "slug": "what-do-you-think-is-the-top-priority-of-our-company-today",
        "created_at": "2020-03-26T01:33:41.341076+04:30",
        "updated_at": "2020-03-26T01:33:41.341076+04:30",
        "topic": "What do you think is the top priority of our company today?",
        "answers": []
      },
      {
        "id": "acb93bb8-5d9c-42cf-8d0f-7ba6b8ebe2ad",
        "slug": "if-you-owned-the-company-what-was-the-one-thing-you-would-do-differently",
        "created_at": "2020-03-26T01:32:43.919951+04:30",
        "updated_at": "2020-03-26T01:32:43.919951+04:30",
        "topic": "If you owned the company, what was the one thing you would do differently?",
        "answers": []
      },
      {
        "id": "3c84cc5d-73d4-4a83-8058-206657e34f6e",
        "slug": "one-thing-we-should-improve-as-a-team",
        "created_at": "2020-03-26T01:31:51.206011+04:30",
        "updated_at": "2020-03-26T01:31:51.206011+04:30",
        "topic": "One thing we should improve as a team",
        "answers": []
      },
      {
        "id": "24e5a2d4-7602-4bee-b29d-3306e8be9c7f",
        "slug": "what-do-you-hate-the-most-about-your-job",
        "created_at": "2020-03-26T01:31:14.211097+04:30",
        "updated_at": "2020-03-26T01:31:14.211097+04:30",
        "topic": "What do you hate the most about your job?",
        "answers": []
      },
      {
        "id": "a84960f1-d405-4bff-b4af-520d2571ae47",
        "slug": "what-do-you-like-the-most-about-your-job",
        "created_at": "2020-03-26T01:30:38.677019+04:30",
        "updated_at": "2020-03-26T01:30:38.677019+04:30",
        "topic": "What do you like the most about your job?",
        "answers": []
      },
      {
        "id": "526475bb-39cf-4e33-909e-d143d6238bc7",
        "slug": "suggest-one-improvement-for-our-company-we-should-implement",
        "created_at": "2020-03-26T01:29:37.350607+04:30",
        "updated_at": "2020-03-26T01:29:37.350607+04:30",
        "topic": "Suggest one improvement for our company we should implement",
        "answers": []
      }
    ]
  },
  {
    "id": "dcabb58e-af40-4281-8b0e-9763c6bd163f",
    "title": "General Topics",
    "created_at": "2020-03-25T20:57:37.877Z",
    "updated_at": "2020-03-25T20:57:37.877Z",
    "boards": [
      {
        "id": "4b8c6020-b5bd-4f98-b4ea-62fe74c028f1",
        "slug": "i-am-sad-because-...",
        "created_at": "2020-03-26T01:48:09.578434+04:30",
        "updated_at": "2020-03-26T01:48:09.578434+04:30",
        "topic": "I am sad because ...",
        "answers": []
      },
      {
        "id": "5a3bb044-6295-4a38-95db-96e4b0cefeea",
        "slug": "i-am-happy-because-...",
        "created_at": "2020-03-26T01:47:50.676392+04:30",
        "updated_at": "2020-03-26T01:47:50.676392+04:30",
        "topic": "I am happy because ...",
        "answers": []
      },
      {
        "id": "5adf0ed1-b3de-4f9b-870f-d71362316b39",
        "slug": "i-am-worried-about-...",
        "created_at": "2020-03-26T01:47:29.307694+04:30",
        "updated_at": "2020-03-26T01:47:29.307694+04:30",
        "topic": "I am worried about ...",
        "answers": []
      },
      {
        "id": "d1ef1038-86f4-4feb-b213-9b61c03733d8",
        "slug": "i-am-most-hopeful-for-...",
        "created_at": "2020-03-26T01:47:05.772534+04:30",
        "updated_at": "2020-03-26T01:47:05.772534+04:30",
        "topic": "I am most hopeful for ...",
        "answers": []
      },
      {
        "id": "7a6e9f61-7ed9-4c91-8714-6390b7e79b83",
        "slug": "i-am-most-afraid-of-...",
        "created_at": "2020-03-26T01:46:38.843727+04:30",
        "updated_at": "2020-03-26T01:46:38.843727+04:30",
        "topic": "I am most afraid of ...",
        "answers": []
      },
      {
        "id": "09863891-1de9-4829-a95f-eceb510a2bc1",
        "slug": "what-do-you-think-the-world-would-look-like-after-the-coronavirus",
        "created_at": "2020-03-26T01:44:52.042581+04:30",
        "updated_at": "2020-03-26T01:44:52.042581+04:30",
        "topic": "What do you think the world would look like after the coronavirus?",
        "answers": []
      },
      {
        "id": "d90d4de6-8eda-4e89-9da9-44f998af07f8",
        "slug": "when-the-coronavirus-is-over-i-will...",
        "created_at": "2020-03-23T05:05:20.652278+04:30",
        "updated_at": "2020-03-23T05:05:20.652278+04:30",
        "topic": "When the coronavirus is over, I will...",
        "answers": [
          {
            "id": "25d768c2-4b22-4255-a5d2-69a193993818",
            "answer": "Be with my family more",
            "created_at": "2020-03-23T05:05:42.127403+04:30",
            "updated_at": "2020-03-23T05:05:42.127403+04:30",
            "upvotes": 0,
            "upvoted": false
          },
          {
            "id": "dcaa7d44-a01c-4408-980c-fa556c96c39a",
            "answer": "work less",
            "created_at": "2020-03-23T05:05:33.264521+04:30",
            "updated_at": "2020-03-23T05:05:33.264521+04:30",
            "upvotes": 0,
            "upvoted": false
          }
        ]
      }
    ]
  }
]
